<svg width="32" height="32" viewBox="0 0 32 32" fill="none" xmlns="http://www.w3.org/2000/svg">
<path fill-rule="evenodd" clip-rule="evenodd" d="M4 0C1.79086 0 0 1.79086 0 4V28C0 30.2091 1.79086 32 4 32H28C30.2091 32 32 30.2091 32 28V4C32 1.79086 30.2091 0 28 0H4ZM24.5948 14.1612H26.477C26.7658 14.1612 27.0003 14.3939 27 14.6805V17.3195C27 17.6061 26.7656 17.8388 26.4767 17.8388H24.5945C24.3721 18.8788 23.9567 19.8803 23.3764 20.7759L24.7123 22.1121C24.9145 22.3144 24.9145 22.641 24.7123 22.8436L22.8471 24.7095C22.6506 24.9061 22.3005 24.9061 22.104 24.7095L20.7729 23.378C19.8791 23.9565 18.8799 24.3706 17.8423 24.5932V26.4807C17.8423 26.7673 17.6079 27 17.319 27H14.681C14.3921 27 14.1577 26.7673 14.1577 26.4807V24.5932C13.1201 24.3706 12.1211 23.9565 11.2271 23.378L9.89595 24.7095C9.79758 24.8077 9.66388 24.863 9.52443 24.863C9.38498 24.863 9.25103 24.8077 9.15291 24.7095L7.28773 22.8436C7.08548 22.6413 7.08548 22.3146 7.28773 22.1121L8.62363 20.7759C8.04332 19.88 7.62811 18.8788 7.40546 17.8388H5.52327C5.23442 17.8388 5 17.6061 5 17.3195V14.6805C5 14.3939 5.23442 14.1612 5.52327 14.1612H7.40546C7.62785 13.1212 8.04332 12.12 8.62363 11.2241L7.28773 9.88791C7.08548 9.68563 7.08548 9.35897 7.28773 9.15644L9.15291 7.29049C9.3494 7.09393 9.69947 7.09393 9.89595 7.29049L11.2271 8.62205C12.1209 8.04352 13.1201 7.62935 14.1577 7.40682V5.51933C14.1577 5.23266 14.3921 5 14.681 5H17.3193C17.6081 5 17.8426 5.23266 17.8426 5.51933V7.40682C18.8802 7.62935 19.8791 8.04352 20.7731 8.62205L22.1043 7.29049C22.3008 7.09393 22.6509 7.09393 22.8473 7.29049L24.7125 9.15644C24.9148 9.35871 24.9148 9.68537 24.7125 9.88791L23.3766 11.2241C23.9569 12.12 24.3721 13.1215 24.5948 14.1612ZM11.5997 16.0001C11.5997 18.4249 13.5737 20.3978 16.0001 20.3978C18.4265 20.3978 20.4005 18.4249 20.4005 16.0001C20.4005 13.5751 18.4265 11.6022 16.0001 11.6022C13.5737 11.6022 11.5997 13.5751 11.5997 16.0001ZM16.0001 12.6409C14.1506 12.6409 12.6462 14.1477 12.6462 16.0001C12.6462 17.8523 14.1506 19.3591 16.0001 19.3591C17.8496 19.3591 19.354 17.8523 19.354 16.0001C19.354 14.1479 17.8494 12.6409 16.0001 12.6409Z" fill="#EE816F"/>
</svg>
