<svg width="32" height="32" viewBox="0 0 32 32" fill="none" xmlns="http://www.w3.org/2000/svg">
<path fill-rule="evenodd" clip-rule="evenodd" d="M4 0C1.79086 0 0 1.79086 0 4V28C0 30.2091 1.79086 32 4 32H28C30.2091 32 32 30.2091 32 28V4C32 1.79086 30.2091 0 28 0H4ZM12.5495 10.9957H19.4274C19.7747 10.9957 20.0063 10.5927 19.7979 10.2845L16.3705 4.71336C16.1853 4.42888 15.7916 4.42888 15.6063 4.71336L12.1789 10.2845C11.9937 10.5927 12.2021 10.9957 12.5495 10.9957ZM23.2484 19.056C23.04 19.056 22.8084 18.9375 22.7158 18.7241L20.7474 14.6466L20.4695 15.4526C20.4 15.6897 20.1684 15.8556 19.9137 15.8556C19.8674 15.8556 19.7979 15.8556 19.7284 15.8319C19.4274 15.7134 19.2421 15.3578 19.3579 15.0496L20.0758 12.8448C20.1916 12.5366 20.5389 12.347 20.84 12.4655L22.9937 13.2004C23.2947 13.319 23.48 13.6746 23.3642 13.9828C23.2484 14.2909 22.9011 14.4806 22.6 14.3621L21.8126 14.0776L23.7811 18.1789C23.92 18.4634 23.8042 18.8427 23.5032 18.9849C23.4337 19.0323 23.3411 19.056 23.2484 19.056ZM11.4379 17.1358L10.6505 17.4203L12.6189 13.319C12.7579 13.0108 12.6421 12.6552 12.3411 12.5129C12.04 12.3707 11.6926 12.4892 11.5305 12.7974L9.56211 16.8987L9.28421 16.0927C9.16842 15.7845 8.84421 15.5948 8.52 15.7134C8.21895 15.8319 8.03368 16.1638 8.14947 16.4957L8.89053 18.7004C8.98316 18.9612 9.21474 19.1034 9.44632 19.1034C9.51579 19.1034 9.58526 19.1034 9.63158 19.0797L11.7853 18.3211C12.0863 18.2026 12.2716 17.8707 12.1558 17.5388C12.0863 17.2069 11.7389 17.0409 11.4379 17.1358ZM17.76 21.4504C17.5284 21.2134 17.1579 21.2134 16.9263 21.4504C16.6947 21.6875 16.6947 22.0668 16.9263 22.3039L17.5053 22.8966H13.0358C12.7116 22.8966 12.4337 23.181 12.4337 23.5129C12.4337 23.8448 12.7116 24.1293 13.0358 24.1293H17.5053L16.9263 24.722C16.6947 24.9591 16.6947 25.3384 16.9263 25.5754C17.0421 25.694 17.2042 25.7651 17.3432 25.7651C17.5053 25.7651 17.6442 25.694 17.76 25.5754L19.3579 23.9397C19.5895 23.7026 19.5895 23.3233 19.3579 23.0862L17.76 21.4504ZM10.1642 20.5733H5.57895C5.25474 20.5733 5 20.8341 5 21.1659V25.8599C5 26.1918 5.25474 26.4526 5.57895 26.4526H10.1642C10.4884 26.4526 10.7432 26.1918 10.7432 25.8599V21.1659C10.7432 20.8341 10.4884 20.5733 10.1642 20.5733ZM24.0821 26.5C25.6936 26.5 27 25.1626 27 23.5129C27 21.8632 25.6936 20.5259 24.0821 20.5259C22.4706 20.5259 21.1642 21.8632 21.1642 23.5129C21.1642 25.1626 22.4706 26.5 24.0821 26.5Z" fill="#EE816F"/>
</svg>
